{
  "name": "Feature",
  "fields": [
    {
      "fieldName": "name",
      "fieldType": "String"
    },
    {
      "fieldName": "isEnable",
      "fieldType": "Boolean"
    },
    {
      "fieldName": "value",
      "fieldType": "String"
    },
    {
      "fieldName": "key1",
      "fieldType": "String"
    },
    {
      "fieldName": "value1",
      "fieldType": "String"
    },
    {
      "fieldName": "key2",
      "fieldType": "String"
    },
    {
      "fieldName": "value2",
      "fieldType": "String"
    }
  ],
  "relationships": [],
  "entityTableName": "feature",
  "dto": "no",
  "pagination": "no",
  "service": "serviceImpl",
  "jpaMetamodelFiltering": false,
  "fluentMethods": true,
  "readOnly": false,
  "embedded": false,
  "applications": ["suprbFrontend"],
  "changelogDate": "20220118054627"
}
